-- Merging decision tree log ---
manifest
ADDED from /home/clau/Projects/android_workspace/LatinIMEThuan/java/app/src/main/AndroidManifest.xml:17:1-175:12
	package
		ADDED from /home/clau/Projects/android_workspace/LatinIMEThuan/java/app/src/main/AndroidManifest.xml:19:9-48
		INJECTED from /home/clau/Projects/android_workspace/LatinIMEThuan/java/app/src/main/AndroidManifest.xml
		INJECTED from /home/clau/Projects/android_workspace/LatinIMEThuan/java/app/src/main/AndroidManifest.xml
	coreApp
		ADDED from /home/clau/Projects/android_workspace/LatinIMEThuan/java/app/src/main/AndroidManifest.xml:18:9-23
	xmlns:android
		ADDED from /home/clau/Projects/android_workspace/LatinIMEThuan/java/app/src/main/AndroidManifest.xml:17:11-69
uses-sdk
ADDED from /home/clau/Projects/android_workspace/LatinIMEThuan/java/app/src/main/AndroidManifest.xml:21:5-74
MERGED from [com.android.support:support-v4:23.1.1] /home/clau/.android/build-cache/8cc12ef54fb53dd039f513e49bb835c7899b2b86/output/AndroidManifest.xml:20:5-43
MERGED from [com.android.support:multidex:1.0.1] /home/clau/.android/build-cache/3670e865b2ac14be80a2863a2f7163fbeb34e419/output/AndroidManifest.xml:18:5-42
	android:targetSdkVersion
		ADDED from /home/clau/Projects/android_workspace/LatinIMEThuan/java/app/src/main/AndroidManifest.xml:21:42-71
		INJECTED from /home/clau/Projects/android_workspace/LatinIMEThuan/java/app/src/main/AndroidManifest.xml
		INJECTED from /home/clau/Projects/android_workspace/LatinIMEThuan/java/app/src/main/AndroidManifest.xml
	android:minSdkVersion
		ADDED from /home/clau/Projects/android_workspace/LatinIMEThuan/java/app/src/main/AndroidManifest.xml:21:15-41
		INJECTED from /home/clau/Projects/android_workspace/LatinIMEThuan/java/app/src/main/AndroidManifest.xml
		INJECTED from /home/clau/Projects/android_workspace/LatinIMEThuan/java/app/src/main/AndroidManifest.xml
uses-permission#android.permission.ACCESS_NETWORK_STATE
ADDED from /home/clau/Projects/android_workspace/LatinIMEThuan/java/app/src/main/AndroidManifest.xml:23:5-79
	android:name
		ADDED from /home/clau/Projects/android_workspace/LatinIMEThuan/java/app/src/main/AndroidManifest.xml:23:22-76
uses-permission#android.permission.DOWNLOAD_WITHOUT_NOTIFICATION
ADDED from /home/clau/Projects/android_workspace/LatinIMEThuan/java/app/src/main/AndroidManifest.xml:24:5-88
	android:name
		ADDED from /home/clau/Projects/android_workspace/LatinIMEThuan/java/app/src/main/AndroidManifest.xml:24:22-85
uses-permission#android.permission.GET_ACCOUNTS
ADDED from /home/clau/Projects/android_workspace/LatinIMEThuan/java/app/src/main/AndroidManifest.xml:25:5-71
	android:name
		ADDED from /home/clau/Projects/android_workspace/LatinIMEThuan/java/app/src/main/AndroidManifest.xml:25:22-68
uses-permission#android.permission.READ_CONTACTS
ADDED from /home/clau/Projects/android_workspace/LatinIMEThuan/java/app/src/main/AndroidManifest.xml:26:5-72
	android:name
		ADDED from /home/clau/Projects/android_workspace/LatinIMEThuan/java/app/src/main/AndroidManifest.xml:26:22-69
uses-permission#android.permission.READ_PROFILE
ADDED from /home/clau/Projects/android_workspace/LatinIMEThuan/java/app/src/main/AndroidManifest.xml:27:5-71
	android:name
		ADDED from /home/clau/Projects/android_workspace/LatinIMEThuan/java/app/src/main/AndroidManifest.xml:27:22-68
uses-permission#android.permission.READ_SYNC_SETTINGS
ADDED from /home/clau/Projects/android_workspace/LatinIMEThuan/java/app/src/main/AndroidManifest.xml:28:5-77
	android:name
		ADDED from /home/clau/Projects/android_workspace/LatinIMEThuan/java/app/src/main/AndroidManifest.xml:28:22-74
uses-permission#android.permission.READ_SYNC_STATS
ADDED from /home/clau/Projects/android_workspace/LatinIMEThuan/java/app/src/main/AndroidManifest.xml:29:5-74
	android:name
		ADDED from /home/clau/Projects/android_workspace/LatinIMEThuan/java/app/src/main/AndroidManifest.xml:29:22-71
uses-permission#android.permission.READ_USER_DICTIONARY
ADDED from /home/clau/Projects/android_workspace/LatinIMEThuan/java/app/src/main/AndroidManifest.xml:30:5-79
	android:name
		ADDED from /home/clau/Projects/android_workspace/LatinIMEThuan/java/app/src/main/AndroidManifest.xml:30:22-76
uses-permission#android.permission.RECEIVE_BOOT_COMPLETED
ADDED from /home/clau/Projects/android_workspace/LatinIMEThuan/java/app/src/main/AndroidManifest.xml:31:5-81
	android:name
		ADDED from /home/clau/Projects/android_workspace/LatinIMEThuan/java/app/src/main/AndroidManifest.xml:31:22-78
uses-permission#android.permission.USE_CREDENTIALS
ADDED from /home/clau/Projects/android_workspace/LatinIMEThuan/java/app/src/main/AndroidManifest.xml:32:5-74
	android:name
		ADDED from /home/clau/Projects/android_workspace/LatinIMEThuan/java/app/src/main/AndroidManifest.xml:32:22-71
uses-permission#android.permission.VIBRATE
ADDED from /home/clau/Projects/android_workspace/LatinIMEThuan/java/app/src/main/AndroidManifest.xml:33:5-66
	android:name
		ADDED from /home/clau/Projects/android_workspace/LatinIMEThuan/java/app/src/main/AndroidManifest.xml:33:22-63
uses-permission#android.permission.WRITE_EXTERNAL_STORAGE
ADDED from /home/clau/Projects/android_workspace/LatinIMEThuan/java/app/src/main/AndroidManifest.xml:34:5-81
	android:name
		ADDED from /home/clau/Projects/android_workspace/LatinIMEThuan/java/app/src/main/AndroidManifest.xml:34:22-78
uses-permission#android.permission.WRITE_SYNC_SETTINGS
ADDED from /home/clau/Projects/android_workspace/LatinIMEThuan/java/app/src/main/AndroidManifest.xml:35:5-78
	android:name
		ADDED from /home/clau/Projects/android_workspace/LatinIMEThuan/java/app/src/main/AndroidManifest.xml:35:22-75
uses-permission#android.permission.WRITE_USER_DICTIONARY
ADDED from /home/clau/Projects/android_workspace/LatinIMEThuan/java/app/src/main/AndroidManifest.xml:36:5-80
	android:name
		ADDED from /home/clau/Projects/android_workspace/LatinIMEThuan/java/app/src/main/AndroidManifest.xml:36:22-77
application
ADDED from /home/clau/Projects/android_workspace/LatinIMEThuan/java/app/src/main/AndroidManifest.xml:38:5-174:19
MERGED from [com.android.support:support-v4:23.1.1] /home/clau/.android/build-cache/8cc12ef54fb53dd039f513e49bb835c7899b2b86/output/AndroidManifest.xml:22:5-20
	android:label
		ADDED from /home/clau/Projects/android_workspace/LatinIMEThuan/java/app/src/main/AndroidManifest.xml:38:18-58
	android:supportsRtl
		ADDED from /home/clau/Projects/android_workspace/LatinIMEThuan/java/app/src/main/AndroidManifest.xml:40:13-39
	android:allowBackup
		ADDED from /home/clau/Projects/android_workspace/LatinIMEThuan/java/app/src/main/AndroidManifest.xml:42:13-39
	android:icon
		ADDED from /home/clau/Projects/android_workspace/LatinIMEThuan/java/app/src/main/AndroidManifest.xml:39:13-58
	android:name
		ADDED from /home/clau/Projects/android_workspace/LatinIMEThuan/java/app/src/main/AndroidManifest.xml:41:13-72
service#com.android.inputmethod.latin.LatinIME
ADDED from /home/clau/Projects/android_workspace/LatinIMEThuan/java/app/src/main/AndroidManifest.xml:45:9-52:19
	android:label
		ADDED from /home/clau/Projects/android_workspace/LatinIMEThuan/java/app/src/main/AndroidManifest.xml:46:17-57
	android:permission
		ADDED from /home/clau/Projects/android_workspace/LatinIMEThuan/java/app/src/main/AndroidManifest.xml:47:17-74
	android:name
		ADDED from /home/clau/Projects/android_workspace/LatinIMEThuan/java/app/src/main/AndroidManifest.xml:45:18-41
intent-filter#android.view.InputMethod
ADDED from /home/clau/Projects/android_workspace/LatinIMEThuan/java/app/src/main/AndroidManifest.xml:48:13-50:29
action#android.view.InputMethod
ADDED from /home/clau/Projects/android_workspace/LatinIMEThuan/java/app/src/main/AndroidManifest.xml:49:17-67
	android:name
		ADDED from /home/clau/Projects/android_workspace/LatinIMEThuan/java/app/src/main/AndroidManifest.xml:49:25-64
meta-data#android.view.im
ADDED from /home/clau/Projects/android_workspace/LatinIMEThuan/java/app/src/main/AndroidManifest.xml:51:13-88
	android:resource
		ADDED from /home/clau/Projects/android_workspace/LatinIMEThuan/java/app/src/main/AndroidManifest.xml:51:55-85
	android:name
		ADDED from /home/clau/Projects/android_workspace/LatinIMEThuan/java/app/src/main/AndroidManifest.xml:51:24-54
service#com.android.inputmethod.latin.spellcheck.AndroidSpellCheckerService
ADDED from /home/clau/Projects/android_workspace/LatinIMEThuan/java/app/src/main/AndroidManifest.xml:54:9-62:19
	android:label
		ADDED from /home/clau/Projects/android_workspace/LatinIMEThuan/java/app/src/main/AndroidManifest.xml:55:18-68
	android:permission
		ADDED from /home/clau/Projects/android_workspace/LatinIMEThuan/java/app/src/main/AndroidManifest.xml:56:18-75
	android:name
		ADDED from /home/clau/Projects/android_workspace/LatinIMEThuan/java/app/src/main/AndroidManifest.xml:54:18-71
intent-filter#android.service.textservice.SpellCheckerService
ADDED from /home/clau/Projects/android_workspace/LatinIMEThuan/java/app/src/main/AndroidManifest.xml:57:13-59:29
action#android.service.textservice.SpellCheckerService
ADDED from /home/clau/Projects/android_workspace/LatinIMEThuan/java/app/src/main/AndroidManifest.xml:58:17-90
	android:name
		ADDED from /home/clau/Projects/android_workspace/LatinIMEThuan/java/app/src/main/AndroidManifest.xml:58:25-87
meta-data#android.view.textservice.scs
ADDED from /home/clau/Projects/android_workspace/LatinIMEThuan/java/app/src/main/AndroidManifest.xml:60:13-61:60
	android:resource
		ADDED from /home/clau/Projects/android_workspace/LatinIMEThuan/java/app/src/main/AndroidManifest.xml:61:21-57
	android:name
		ADDED from /home/clau/Projects/android_workspace/LatinIMEThuan/java/app/src/main/AndroidManifest.xml:60:24-67
service#com.android.inputmethod.dictionarypack.DictionaryService
ADDED from /home/clau/Projects/android_workspace/LatinIMEThuan/java/app/src/main/AndroidManifest.xml:64:9-66:19
	android:label
		ADDED from /home/clau/Projects/android_workspace/LatinIMEThuan/java/app/src/main/AndroidManifest.xml:65:17-64
	android:name
		ADDED from /home/clau/Projects/android_workspace/LatinIMEThuan/java/app/src/main/AndroidManifest.xml:64:18-89
activity#com.android.inputmethod.latin.setup.SetupActivity
ADDED from /home/clau/Projects/android_workspace/LatinIMEThuan/java/app/src/main/AndroidManifest.xml:69:9-79:20
	android:label
		ADDED from /home/clau/Projects/android_workspace/LatinIMEThuan/java/app/src/main/AndroidManifest.xml:71:17-57
	android:launchMode
		ADDED from /home/clau/Projects/android_workspace/LatinIMEThuan/java/app/src/main/AndroidManifest.xml:73:17-48
	android:noHistory
		ADDED from /home/clau/Projects/android_workspace/LatinIMEThuan/java/app/src/main/AndroidManifest.xml:74:17-41
	android:icon
		ADDED from /home/clau/Projects/android_workspace/LatinIMEThuan/java/app/src/main/AndroidManifest.xml:72:17-62
	android:theme
		ADDED from /home/clau/Projects/android_workspace/LatinIMEThuan/java/app/src/main/AndroidManifest.xml:70:17-61
	android:name
		ADDED from /home/clau/Projects/android_workspace/LatinIMEThuan/java/app/src/main/AndroidManifest.xml:69:19-54
intent-filter#android.intent.action.MAIN+android.intent.category.LAUNCHER
ADDED from /home/clau/Projects/android_workspace/LatinIMEThuan/java/app/src/main/AndroidManifest.xml:75:13-78:29
action#android.intent.action.MAIN
ADDED from /home/clau/Projects/android_workspace/LatinIMEThuan/java/app/src/main/AndroidManifest.xml:76:17-69
	android:name
		ADDED from /home/clau/Projects/android_workspace/LatinIMEThuan/java/app/src/main/AndroidManifest.xml:76:25-66
category#android.intent.category.LAUNCHER
ADDED from /home/clau/Projects/android_workspace/LatinIMEThuan/java/app/src/main/AndroidManifest.xml:77:17-77
	android:name
		ADDED from /home/clau/Projects/android_workspace/LatinIMEThuan/java/app/src/main/AndroidManifest.xml:77:27-74
activity#com.android.inputmethod.latin.permissions.PermissionsActivity
ADDED from /home/clau/Projects/android_workspace/LatinIMEThuan/java/app/src/main/AndroidManifest.xml:81:9-86:20
	android:exported
		ADDED from /home/clau/Projects/android_workspace/LatinIMEThuan/java/app/src/main/AndroidManifest.xml:84:13-37
	android:theme
		ADDED from /home/clau/Projects/android_workspace/LatinIMEThuan/java/app/src/main/AndroidManifest.xml:83:13-72
	android:taskAffinity
		ADDED from /home/clau/Projects/android_workspace/LatinIMEThuan/java/app/src/main/AndroidManifest.xml:85:13-36
	android:name
		ADDED from /home/clau/Projects/android_workspace/LatinIMEThuan/java/app/src/main/AndroidManifest.xml:82:13-60
activity#com.android.inputmethod.latin.setup.SetupWizardActivity
ADDED from /home/clau/Projects/android_workspace/LatinIMEThuan/java/app/src/main/AndroidManifest.xml:88:9-95:20
	android:clearTaskOnLaunch
		ADDED from /home/clau/Projects/android_workspace/LatinIMEThuan/java/app/src/main/AndroidManifest.xml:91:17-49
	android:label
		ADDED from /home/clau/Projects/android_workspace/LatinIMEThuan/java/app/src/main/AndroidManifest.xml:90:17-57
	android:theme
		ADDED from /home/clau/Projects/android_workspace/LatinIMEThuan/java/app/src/main/AndroidManifest.xml:89:17-61
	android:name
		ADDED from /home/clau/Projects/android_workspace/LatinIMEThuan/java/app/src/main/AndroidManifest.xml:88:19-60
intent-filter#android.intent.action.MAIN
ADDED from /home/clau/Projects/android_workspace/LatinIMEThuan/java/app/src/main/AndroidManifest.xml:92:13-94:29
activity#com.android.inputmethod.latin.settings.SettingsActivity
ADDED from /home/clau/Projects/android_workspace/LatinIMEThuan/java/app/src/main/AndroidManifest.xml:97:9-103:20
	android:label
		ADDED from /home/clau/Projects/android_workspace/LatinIMEThuan/java/app/src/main/AndroidManifest.xml:99:17-61
	android:theme
		ADDED from /home/clau/Projects/android_workspace/LatinIMEThuan/java/app/src/main/AndroidManifest.xml:98:17-61
	android:name
		ADDED from /home/clau/Projects/android_workspace/LatinIMEThuan/java/app/src/main/AndroidManifest.xml:97:19-60
activity#com.android.inputmethod.latin.spellcheck.SpellCheckerSettingsActivity
ADDED from /home/clau/Projects/android_workspace/LatinIMEThuan/java/app/src/main/AndroidManifest.xml:105:9-111:20
	android:label
		ADDED from /home/clau/Projects/android_workspace/LatinIMEThuan/java/app/src/main/AndroidManifest.xml:107:19-73
	android:theme
		ADDED from /home/clau/Projects/android_workspace/LatinIMEThuan/java/app/src/main/AndroidManifest.xml:106:19-63
	android:name
		ADDED from /home/clau/Projects/android_workspace/LatinIMEThuan/java/app/src/main/AndroidManifest.xml:105:19-74
activity#com.android.inputmethod.dictionarypack.DictionarySettingsActivity
ADDED from /home/clau/Projects/android_workspace/LatinIMEThuan/java/app/src/main/AndroidManifest.xml:113:9-120:20
	android:label
		ADDED from /home/clau/Projects/android_workspace/LatinIMEThuan/java/app/src/main/AndroidManifest.xml:115:17-66
	android:uiOptions
		ADDED from /home/clau/Projects/android_workspace/LatinIMEThuan/java/app/src/main/AndroidManifest.xml:116:17-61
	android:theme
		ADDED from /home/clau/Projects/android_workspace/LatinIMEThuan/java/app/src/main/AndroidManifest.xml:114:17-61
	android:name
		ADDED from /home/clau/Projects/android_workspace/LatinIMEThuan/java/app/src/main/AndroidManifest.xml:113:19-99
activity#com.android.inputmethod.dictionarypack.DownloadOverMeteredDialog
ADDED from /home/clau/Projects/android_workspace/LatinIMEThuan/java/app/src/main/AndroidManifest.xml:122:9-128:20
	android:label
		ADDED from /home/clau/Projects/android_workspace/LatinIMEThuan/java/app/src/main/AndroidManifest.xml:124:17-87
	android:theme
		ADDED from /home/clau/Projects/android_workspace/LatinIMEThuan/java/app/src/main/AndroidManifest.xml:123:17-61
	android:name
		ADDED from /home/clau/Projects/android_workspace/LatinIMEThuan/java/app/src/main/AndroidManifest.xml:122:19-98
activity#com.android.inputmethod.latin.settings.TestFragmentActivity
ADDED from /home/clau/Projects/android_workspace/LatinIMEThuan/java/app/src/main/AndroidManifest.xml:131:9-132:44
	android:exported
		ADDED from /home/clau/Projects/android_workspace/LatinIMEThuan/java/app/src/main/AndroidManifest.xml:132:17-41
	android:name
		ADDED from /home/clau/Projects/android_workspace/LatinIMEThuan/java/app/src/main/AndroidManifest.xml:131:19-64
receiver#com.android.inputmethod.latin.SystemBroadcastReceiver
ADDED from /home/clau/Projects/android_workspace/LatinIMEThuan/java/app/src/main/AndroidManifest.xml:135:9-142:20
	android:name
		ADDED from /home/clau/Projects/android_workspace/LatinIMEThuan/java/app/src/main/AndroidManifest.xml:135:19-57
intent-filter#android.intent.action.BOOT_COMPLETED+android.intent.action.LOCALE_CHANGED+android.intent.action.MY_PACKAGE_REPLACED+android.intent.action.USER_INITIALIZE
ADDED from /home/clau/Projects/android_workspace/LatinIMEThuan/java/app/src/main/AndroidManifest.xml:136:13-141:29
action#android.intent.action.MY_PACKAGE_REPLACED
ADDED from /home/clau/Projects/android_workspace/LatinIMEThuan/java/app/src/main/AndroidManifest.xml:137:17-84
	android:name
		ADDED from /home/clau/Projects/android_workspace/LatinIMEThuan/java/app/src/main/AndroidManifest.xml:137:25-81
action#android.intent.action.BOOT_COMPLETED
ADDED from /home/clau/Projects/android_workspace/LatinIMEThuan/java/app/src/main/AndroidManifest.xml:138:17-79
	android:name
		ADDED from /home/clau/Projects/android_workspace/LatinIMEThuan/java/app/src/main/AndroidManifest.xml:138:25-76
action#android.intent.action.USER_INITIALIZE
ADDED from /home/clau/Projects/android_workspace/LatinIMEThuan/java/app/src/main/AndroidManifest.xml:139:17-80
	android:name
		ADDED from /home/clau/Projects/android_workspace/LatinIMEThuan/java/app/src/main/AndroidManifest.xml:139:25-77
action#android.intent.action.LOCALE_CHANGED
ADDED from /home/clau/Projects/android_workspace/LatinIMEThuan/java/app/src/main/AndroidManifest.xml:140:17-79
	android:name
		ADDED from /home/clau/Projects/android_workspace/LatinIMEThuan/java/app/src/main/AndroidManifest.xml:140:25-76
receiver#com.android.inputmethod.latin.DictionaryPackInstallBroadcastReceiver
ADDED from /home/clau/Projects/android_workspace/LatinIMEThuan/java/app/src/main/AndroidManifest.xml:144:9-148:20
	android:exported
		ADDED from /home/clau/Projects/android_workspace/LatinIMEThuan/java/app/src/main/AndroidManifest.xml:144:73-97
	android:name
		ADDED from /home/clau/Projects/android_workspace/LatinIMEThuan/java/app/src/main/AndroidManifest.xml:144:19-72
intent-filter#com.android.inputmethod.dictionarypack.aosp.UNKNOWN_CLIENT
ADDED from /home/clau/Projects/android_workspace/LatinIMEThuan/java/app/src/main/AndroidManifest.xml:145:13-147:29
action#com.android.inputmethod.dictionarypack.aosp.UNKNOWN_CLIENT
ADDED from /home/clau/Projects/android_workspace/LatinIMEThuan/java/app/src/main/AndroidManifest.xml:146:17-101
	android:name
		ADDED from /home/clau/Projects/android_workspace/LatinIMEThuan/java/app/src/main/AndroidManifest.xml:146:25-98
receiver#com.android.inputmethod.dictionarypack.EventHandler
ADDED from /home/clau/Projects/android_workspace/LatinIMEThuan/java/app/src/main/AndroidManifest.xml:150:9-157:20
	android:name
		ADDED from /home/clau/Projects/android_workspace/LatinIMEThuan/java/app/src/main/AndroidManifest.xml:150:19-85
intent-filter#android.intent.action.DATE_CHANGED+android.intent.action.DOWNLOAD_COMPLETE+com.android.inputmethod.dictionarypack.aosp.INIT_AND_UPDATE_NOW+com.android.inputmethod.dictionarypack.aosp.UPDATE_NOW
ADDED from /home/clau/Projects/android_workspace/LatinIMEThuan/java/app/src/main/AndroidManifest.xml:151:13-156:29
action#android.intent.action.DOWNLOAD_COMPLETE
ADDED from /home/clau/Projects/android_workspace/LatinIMEThuan/java/app/src/main/AndroidManifest.xml:152:17-82
	android:name
		ADDED from /home/clau/Projects/android_workspace/LatinIMEThuan/java/app/src/main/AndroidManifest.xml:152:25-79
action#android.intent.action.DATE_CHANGED
ADDED from /home/clau/Projects/android_workspace/LatinIMEThuan/java/app/src/main/AndroidManifest.xml:153:17-77
	android:name
		ADDED from /home/clau/Projects/android_workspace/LatinIMEThuan/java/app/src/main/AndroidManifest.xml:153:25-74
action#com.android.inputmethod.dictionarypack.aosp.UPDATE_NOW
ADDED from /home/clau/Projects/android_workspace/LatinIMEThuan/java/app/src/main/AndroidManifest.xml:154:17-97
	android:name
		ADDED from /home/clau/Projects/android_workspace/LatinIMEThuan/java/app/src/main/AndroidManifest.xml:154:25-94
action#com.android.inputmethod.dictionarypack.aosp.INIT_AND_UPDATE_NOW
ADDED from /home/clau/Projects/android_workspace/LatinIMEThuan/java/app/src/main/AndroidManifest.xml:155:17-106
	android:name
		ADDED from /home/clau/Projects/android_workspace/LatinIMEThuan/java/app/src/main/AndroidManifest.xml:155:25-103
receiver#com.android.inputmethod.latin.accounts.AccountsChangedReceiver
ADDED from /home/clau/Projects/android_workspace/LatinIMEThuan/java/app/src/main/AndroidManifest.xml:160:9-164:20
	android:name
		ADDED from /home/clau/Projects/android_workspace/LatinIMEThuan/java/app/src/main/AndroidManifest.xml:160:19-67
intent-filter#android.accounts.LOGIN_ACCOUNTS_CHANGED
ADDED from /home/clau/Projects/android_workspace/LatinIMEThuan/java/app/src/main/AndroidManifest.xml:161:13-163:29
action#android.accounts.LOGIN_ACCOUNTS_CHANGED
ADDED from /home/clau/Projects/android_workspace/LatinIMEThuan/java/app/src/main/AndroidManifest.xml:162:17-82
	android:name
		ADDED from /home/clau/Projects/android_workspace/LatinIMEThuan/java/app/src/main/AndroidManifest.xml:162:25-79
provider#com.android.inputmethod.dictionarypack.DictionaryProvider
ADDED from /home/clau/Projects/android_workspace/LatinIMEThuan/java/app/src/main/AndroidManifest.xml:167:9-173:20
	android:authorities
		ADDED from /home/clau/Projects/android_workspace/LatinIMEThuan/java/app/src/main/AndroidManifest.xml:170:17-56
	android:grantUriPermissions
		ADDED from /home/clau/Projects/android_workspace/LatinIMEThuan/java/app/src/main/AndroidManifest.xml:168:17-51
	android:label
		ADDED from /home/clau/Projects/android_workspace/LatinIMEThuan/java/app/src/main/AndroidManifest.xml:172:17-65
	android:multiprocess
		ADDED from /home/clau/Projects/android_workspace/LatinIMEThuan/java/app/src/main/AndroidManifest.xml:171:17-45
	android:exported
		ADDED from /home/clau/Projects/android_workspace/LatinIMEThuan/java/app/src/main/AndroidManifest.xml:169:17-41
	android:name
		ADDED from /home/clau/Projects/android_workspace/LatinIMEThuan/java/app/src/main/AndroidManifest.xml:167:19-91
